{
    "current_page": 1,
    "data": [
        {
            "id": 1,
            "artnr": "211240.30",
            "name": "EXALTO RW 240BS 12V 40NM WD 30 MM",
            "kind": "240 BS",
            "created_at": "2020-03-05 13:24:28",
            "updated_at": "2020-03-05 13:24:28",
            "categories": [
                {
                    "id": 1,
                    "name": "motorunit",
                    "created_at": "2020-03-05 11:20:28",
                    "updated_at": "2020-03-05 11:20:28",
                    "pivot": {
                        "product_id": "1",
                        "category_id": "1"
                    }
                },
                {
                    "id": 2,
                    "name": "ruitenwisser",
                    "created_at": "2020-03-05 11:20:29",
                    "updated_at": "2020-03-05 11:20:29",
                    "pivot": {
                        "product_id": "1",
                        "category_id": "2"
                    }
                }
            ]
        },
        {
            "id": 2,
            "artnr": "211255.35",
            "name": "EXALTO RW 255BS 12V 55NM WD 35MM",
            "kind": "255 BS",
            "created_at": "2020-03-05 13:24:28",
            "updated_at": "2020-03-05 13:24:28",
            "categories": [
                {
                    "id": 1,
                    "name": "motorunit",
                    "created_at": "2020-03-05 11:20:28",
                    "updated_at": "2020-03-05 11:20:28",
                    "pivot": {
                        "product_id": "2",
                        "category_id": "1"
                    }
                },
                {
                    "id": 2,
                    "name": "ruitenwisser",
                    "created_at": "2020-03-05 11:20:29",
                    "updated_at": "2020-03-05 11:20:29",
                    "pivot": {
                        "product_id": "2",
                        "category_id": "2"
                    }
                },
                {
                    "id": 1,
                    "name": "motorunit",
                    "created_at": "2020-03-05 11:20:28",
                    "updated_at": "2020-03-05 11:20:28",
                    "pivot": {
                        "product_id": "2",
                        "category_id": "1"
                    }
                }
            ]
        },
        {
            "id": 3,
            "artnr": "212430.25",
            "name": "EXALTO RUITENWISSER XP2 24V 30NM WD25",
            "kind": "MD1 - 230XP",
            "created_at": "2020-03-05 13:24:29",
            "updated_at": "2020-03-05 13:24:29",
            "categories": [
                {
                    "id": 1,
                    "name": "motorunit",
                    "created_at": "2020-03-05 11:20:28",
                    "updated_at": "2020-03-05 11:20:28",
                    "pivot": {
                        "product_id": "3",
                        "category_id": "1"
                    }
                }
            ]
        },
        {
            "id": 4,
            "artnr": "771703.73",
            "name": "EXALTO RW CF9 587TX 12V 40NM WD 27MM",
            "kind": "CF9 587TX",
            "created_at": "2020-03-05 13:29:46",
            "updated_at": "2020-03-05 13:29:46",
            "categories": [
                {
                    "id": 2,
                    "name": "ruitenwisser",
                    "created_at": "2020-03-05 11:20:29",
                    "updated_at": "2020-03-05 11:20:29",
                    "pivot": {
                        "product_id": "4",
                        "category_id": "2"
                    }
                }
            ]
        },
        {
            "id": 5,
            "artnr": "059104.21",
            "name": "EXALTO RW JE0 225BG 12V 49NM WD 23MM",
            "kind": "JE0 225BG",
            "created_at": "2020-03-05 13:29:46",
            "updated_at": "2020-03-05 13:29:46",
            "categories": []
        }
    ],
    "first_page_url": "http:\/\/localhost:8000\/products?page=1",
    "from": 1,
    "last_page": 2,
    "last_page_url": "http:\/\/localhost:8000\/products?page=2",
    "next_page_url": "http:\/\/localhost:8000\/products?page=2",
    "path": "http:\/\/localhost:8000\/products",
    "per_page": 5,
    "prev_page_url": null,
    "to": 5,
    "total": 10
}